{
  "frames": {
    "3xBAR": {
      "frame": {
        "x": 141,
        "y": 0,
        "w": 141,
        "h": 121
      },
      "rotated": false,
      "trimmed": false,
      "spriteSourceSize": {
        "x": 0,
        "y": 0,
        "w": 141,
        "h": 121
      },
      "sourceSize": {
        "w": 141,
        "h": 121
      }
    },
    "BAR": {
      "frame": {
        "x": 423,
        "y": 0,
        "w": 141,
        "h": 121
      },
      "rotated": false,
      "trimmed": false,
      "spriteSourceSize": {
        "x": 0,
        "y": 0,
        "w": 141,
        "h": 121
      },
      "sourceSize": {
        "w": 141,
        "h": 121
      }
    },
    "2xBAR": {
      "frame": {
        "x": 0,
        "y": 0,
        "w": 141,
        "h": 121
      },
      "rotated": false,
      "trimmed": false,
      "spriteSourceSize": {
        "x": 0,
        "y": 0,
        "w": 141,
        "h": 121
      },
      "sourceSize": {
        "w": 141,
        "h": 121
      }
    },
    "SEVEN": {
      "frame": {
        "x": 282,
        "y": 0,
        "w": 141,
        "h": 121
      },
      "rotated": false,
      "trimmed": false,
      "spriteSourceSize": {
        "x": 0,
        "y": 0,
        "w": 141,
        "h": 121
      },
      "sourceSize": {
        "w": 141,
        "h": 121
      }
    },
    "CHERRY": {
      "frame": {
        "x": 564,
        "y": 0,
        "w": 141,
        "h": 121
      },
      "rotated": false,
      "trimmed": false,
      "spriteSourceSize": {
        "x": 0,
        "y": 0,
        "w": 141,
        "h": 121
      },
      "sourceSize": {
        "w": 141,
        "h": 121
      }
    }
  },
  "meta": {
    "app": "https://www.codeandweb.com/texturepacker",
    "version": "1.0",
    "image": "symbols.png",
    "format": "RGBA8888",
    "size": {
      "w": 705,
      "h": 121
    },
    "scale": "1",
    "smartupdate": "$TexturePacker:SmartUpdate:900e09b6c27f8918573a1d0c1cdf3732:04c1754c912e1447a5ae9a0d23bbb93b:02ab132358d6d8b512e80119463a8329$"
  }
}
